^C:\USERS\LOGOT\DOCUMENTS\GITHUB\DX11_ENGINE\ENGINE\COMPONENTS\GRAPHICS\UTILS\ADAPTERREADER.CPP
/c /ZI /JMC /nologo /W3 /WX- /diagnostics:classic /Od /Oy- /D WIN32 /D _DEBUG /D _WINDOWS /D _UNICODE /D UNICODE /Gm- /EHsc /RTC1 /MDd /GS /fp:precise /permissive- /Zc:wchar_t /Zc:forScope /Zc:inline /Fo"DEBUG\\" /Fd"DEBUG\VC141.PDB" /Gd /TP /analyze- /FC C:\USERS\LOGOT\DOCUMENTS\GITHUB\DX11_ENGINE\ENGINE\COMPONENTS\GRAPHICS\UTILS\ADAPTERREADER.CPP
^C:\USERS\LOGOT\DOCUMENTS\GITHUB\DX11_ENGINE\ENGINE\UTILS\ERRORLOGGER.CPP
/c /ZI /JMC /nologo /W3 /WX- /diagnostics:classic /Od /Oy- /D WIN32 /D _DEBUG /D _WINDOWS /D _UNICODE /D UNICODE /Gm- /EHsc /RTC1 /MDd /GS /fp:precise /permissive- /Zc:wchar_t /Zc:forScope /Zc:inline /Fo"DEBUG\\" /Fd"DEBUG\VC141.PDB" /Gd /TP /analyze- /FC C:\USERS\LOGOT\DOCUMENTS\GITHUB\DX11_ENGINE\ENGINE\UTILS\ERRORLOGGER.CPP
^C:\USERS\LOGOT\DOCUMENTS\GITHUB\DX11_ENGINE\ENGINE\UTILS\LUASCRIPT.CPP
/c /ZI /JMC /nologo /W3 /WX- /diagnostics:classic /Od /Oy- /D WIN32 /D _DEBUG /D _WINDOWS /D _UNICODE /D UNICODE /Gm- /EHsc /RTC1 /MDd /GS /fp:precise /permissive- /Zc:wchar_t /Zc:forScope /Zc:inline /Fo"DEBUG\\" /Fd"DEBUG\VC141.PDB" /Gd /TP /analyze- /FC C:\USERS\LOGOT\DOCUMENTS\GITHUB\DX11_ENGINE\ENGINE\UTILS\LUASCRIPT.CPP
^C:\USERS\LOGOT\DOCUMENTS\GITHUB\DX11_ENGINE\ENGINE\UTILS\LOGWRITER.CPP
/c /ZI /JMC /nologo /W3 /WX- /diagnostics:classic /Od /Oy- /D WIN32 /D _DEBUG /D _WINDOWS /D _UNICODE /D UNICODE /Gm- /EHsc /RTC1 /MDd /GS /fp:precise /permissive- /Zc:wchar_t /Zc:forScope /Zc:inline /Fo"DEBUG\\" /Fd"DEBUG\VC141.PDB" /Gd /TP /analyze- /FC C:\USERS\LOGOT\DOCUMENTS\GITHUB\DX11_ENGINE\ENGINE\UTILS\LOGWRITER.CPP
^C:\USERS\LOGOT\DOCUMENTS\GITHUB\DX11_ENGINE\ENGINE\COMPONENTS\GRAPHICS\SHADERS\SHADERS.CPP
/c /ZI /JMC /nologo /W3 /WX- /diagnostics:classic /Od /Oy- /D WIN32 /D _DEBUG /D _WINDOWS /D _UNICODE /D UNICODE /Gm- /EHsc /RTC1 /MDd /GS /fp:precise /permissive- /Zc:wchar_t /Zc:forScope /Zc:inline /Fo"DEBUG\\" /Fd"DEBUG\VC141.PDB" /Gd /TP /analyze- /FC C:\USERS\LOGOT\DOCUMENTS\GITHUB\DX11_ENGINE\ENGINE\COMPONENTS\GRAPHICS\SHADERS\SHADERS.CPP
^C:\USERS\LOGOT\DOCUMENTS\GITHUB\DX11_ENGINE\ENGINE\COMPONENTS\INPUTCOMPONENTS\GAMEPAD\GAMEPADCLASS.CPP
/c /ZI /JMC /nologo /W3 /WX- /diagnostics:classic /Od /Oy- /D WIN32 /D _DEBUG /D _WINDOWS /D _UNICODE /D UNICODE /Gm- /EHsc /RTC1 /MDd /GS /fp:precise /permissive- /Zc:wchar_t /Zc:forScope /Zc:inline /Fo"DEBUG\\" /Fd"DEBUG\VC141.PDB" /Gd /TP /analyze- /FC C:\USERS\LOGOT\DOCUMENTS\GITHUB\DX11_ENGINE\ENGINE\COMPONENTS\INPUTCOMPONENTS\GAMEPAD\GAMEPADCLASS.CPP
^C:\USERS\LOGOT\DOCUMENTS\GITHUB\DX11_ENGINE\ENGINE\COMPONENTS\INPUTCOMPONENTS\GAMEPAD\GAMEPADEVENT.CPP
/c /ZI /JMC /nologo /W3 /WX- /diagnostics:classic /Od /Oy- /D WIN32 /D _DEBUG /D _WINDOWS /D _UNICODE /D UNICODE /Gm- /EHsc /RTC1 /MDd /GS /fp:precise /permissive- /Zc:wchar_t /Zc:forScope /Zc:inline /Fo"DEBUG\\" /Fd"DEBUG\VC141.PDB" /Gd /TP /analyze- /FC C:\USERS\LOGOT\DOCUMENTS\GITHUB\DX11_ENGINE\ENGINE\COMPONENTS\INPUTCOMPONENTS\GAMEPAD\GAMEPADEVENT.CPP
^C:\USERS\LOGOT\DOCUMENTS\GITHUB\DX11_ENGINE\ENGINE\COMPONENTS\INPUTCOMPONENTS\KEYBOARD\KEYBOARDCLASS.CPP
/c /ZI /JMC /nologo /W3 /WX- /diagnostics:classic /Od /Oy- /D WIN32 /D _DEBUG /D _WINDOWS /D _UNICODE /D UNICODE /Gm- /EHsc /RTC1 /MDd /GS /fp:precise /permissive- /Zc:wchar_t /Zc:forScope /Zc:inline /Fo"DEBUG\\" /Fd"DEBUG\VC141.PDB" /Gd /TP /analyze- /FC C:\USERS\LOGOT\DOCUMENTS\GITHUB\DX11_ENGINE\ENGINE\COMPONENTS\INPUTCOMPONENTS\KEYBOARD\KEYBOARDCLASS.CPP
^C:\USERS\LOGOT\DOCUMENTS\GITHUB\DX11_ENGINE\ENGINE\COMPONENTS\INPUTCOMPONENTS\KEYBOARD\KEYBOARDEVENT.CPP
/c /ZI /JMC /nologo /W3 /WX- /diagnostics:classic /Od /Oy- /D WIN32 /D _DEBUG /D _WINDOWS /D _UNICODE /D UNICODE /Gm- /EHsc /RTC1 /MDd /GS /fp:precise /permissive- /Zc:wchar_t /Zc:forScope /Zc:inline /Fo"DEBUG\\" /Fd"DEBUG\VC141.PDB" /Gd /TP /analyze- /FC C:\USERS\LOGOT\DOCUMENTS\GITHUB\DX11_ENGINE\ENGINE\COMPONENTS\INPUTCOMPONENTS\KEYBOARD\KEYBOARDEVENT.CPP
^C:\USERS\LOGOT\DOCUMENTS\GITHUB\DX11_ENGINE\ENGINE\COMPONENTS\INPUTCOMPONENTS\MOUSE\MOUSECLASS.CPP
/c /ZI /JMC /nologo /W3 /WX- /diagnostics:classic /Od /Oy- /D WIN32 /D _DEBUG /D _WINDOWS /D _UNICODE /D UNICODE /Gm- /EHsc /RTC1 /MDd /GS /fp:precise /permissive- /Zc:wchar_t /Zc:forScope /Zc:inline /Fo"DEBUG\\" /Fd"DEBUG\VC141.PDB" /Gd /TP /analyze- /FC C:\USERS\LOGOT\DOCUMENTS\GITHUB\DX11_ENGINE\ENGINE\COMPONENTS\INPUTCOMPONENTS\MOUSE\MOUSECLASS.CPP
^C:\USERS\LOGOT\DOCUMENTS\GITHUB\DX11_ENGINE\ENGINE\COMPONENTS\INPUTCOMPONENTS\MOUSE\MOUSEEVENT.CPP
/c /ZI /JMC /nologo /W3 /WX- /diagnostics:classic /Od /Oy- /D WIN32 /D _DEBUG /D _WINDOWS /D _UNICODE /D UNICODE /Gm- /EHsc /RTC1 /MDd /GS /fp:precise /permissive- /Zc:wchar_t /Zc:forScope /Zc:inline /Fo"DEBUG\\" /Fd"DEBUG\VC141.PDB" /Gd /TP /analyze- /FC C:\USERS\LOGOT\DOCUMENTS\GITHUB\DX11_ENGINE\ENGINE\COMPONENTS\INPUTCOMPONENTS\MOUSE\MOUSEEVENT.CPP
^C:\USERS\LOGOT\DOCUMENTS\GITHUB\DX11_ENGINE\ENGINE\UTILS\STRINGCONVERTER.CPP
/c /ZI /JMC /nologo /W3 /WX- /diagnostics:classic /Od /Oy- /D WIN32 /D _DEBUG /D _WINDOWS /D _UNICODE /D UNICODE /Gm- /EHsc /RTC1 /MDd /GS /fp:precise /permissive- /Zc:wchar_t /Zc:forScope /Zc:inline /Fo"DEBUG\\" /Fd"DEBUG\VC141.PDB" /Gd /TP /analyze- /FC C:\USERS\LOGOT\DOCUMENTS\GITHUB\DX11_ENGINE\ENGINE\UTILS\STRINGCONVERTER.CPP
^C:\USERS\LOGOT\DOCUMENTS\GITHUB\DX11_ENGINE\ENGINE\COMPONENTS\WINDOWCOMPONENTS\RENDERWINDOW.CPP
/c /ZI /JMC /nologo /W3 /WX- /diagnostics:classic /Od /Oy- /D WIN32 /D _DEBUG /D _WINDOWS /D _UNICODE /D UNICODE /Gm- /EHsc /RTC1 /MDd /GS /fp:precise /permissive- /Zc:wchar_t /Zc:forScope /Zc:inline /Fo"DEBUG\\" /Fd"DEBUG\VC141.PDB" /Gd /TP /analyze- /FC C:\USERS\LOGOT\DOCUMENTS\GITHUB\DX11_ENGINE\ENGINE\COMPONENTS\WINDOWCOMPONENTS\RENDERWINDOW.CPP
^C:\USERS\LOGOT\DOCUMENTS\GITHUB\DX11_ENGINE\ENGINE\COMPONENTS\WINDOWCOMPONENTS\WINDOWCONTAINER.CPP
/c /ZI /JMC /nologo /W3 /WX- /diagnostics:classic /Od /Oy- /D WIN32 /D _DEBUG /D _WINDOWS /D _UNICODE /D UNICODE /Gm- /EHsc /RTC1 /MDd /GS /fp:precise /permissive- /Zc:wchar_t /Zc:forScope /Zc:inline /Fo"DEBUG\\" /Fd"DEBUG\VC141.PDB" /Gd /TP /analyze- /FC C:\USERS\LOGOT\DOCUMENTS\GITHUB\DX11_ENGINE\ENGINE\COMPONENTS\WINDOWCOMPONENTS\WINDOWCONTAINER.CPP
^C:\USERS\LOGOT\DOCUMENTS\GITHUB\DX11_ENGINE\ENGINE\ENGINE.CPP
/c /ZI /JMC /nologo /W3 /WX- /diagnostics:classic /Od /Oy- /D WIN32 /D _DEBUG /D _WINDOWS /D _UNICODE /D UNICODE /Gm- /EHsc /RTC1 /MDd /GS /fp:precise /permissive- /Zc:wchar_t /Zc:forScope /Zc:inline /Fo"DEBUG\\" /Fd"DEBUG\VC141.PDB" /Gd /TP /analyze- /FC C:\USERS\LOGOT\DOCUMENTS\GITHUB\DX11_ENGINE\ENGINE\ENGINE.CPP
^C:\USERS\LOGOT\DOCUMENTS\GITHUB\DX11_ENGINE\SOURCE.CPP
/c /ZI /JMC /nologo /W3 /WX- /diagnostics:classic /Od /Oy- /D WIN32 /D _DEBUG /D _WINDOWS /D _UNICODE /D UNICODE /Gm- /EHsc /RTC1 /MDd /GS /fp:precise /permissive- /Zc:wchar_t /Zc:forScope /Zc:inline /Fo"DEBUG\\" /Fd"DEBUG\VC141.PDB" /Gd /TP /analyze- /FC C:\USERS\LOGOT\DOCUMENTS\GITHUB\DX11_ENGINE\SOURCE.CPP
^C:\USERS\LOGOT\DOCUMENTS\GITHUB\DX11_ENGINE\ENGINE\COMPONENTS\GRAPHICS\GRAPHICS.CPP
/c /ZI /JMC /nologo /W3 /WX- /diagnostics:classic /Od /Oy- /D WIN32 /D _DEBUG /D _WINDOWS /D _UNICODE /D UNICODE /Gm- /EHsc /RTC1 /MDd /GS /fp:precise /permissive- /Zc:wchar_t /Zc:forScope /Zc:inline /Fo"DEBUG\\" /Fd"DEBUG\VC141.PDB" /Gd /TP /analyze- /FC C:\USERS\LOGOT\DOCUMENTS\GITHUB\DX11_ENGINE\ENGINE\COMPONENTS\GRAPHICS\GRAPHICS.CPP
