^C:\USERS\LOGOT\DOCUMENTS\GITHUB\DX11_ENGINE\ENGINE\COMPONENTS\GRAPHICS\SHADERS\PIXELSHADER.HLSL
C:\USERS\LOGOT\DOCUMENTS\GITHUB\DX11_ENGINE\DEBUG\PIXELSHADER.CSO
^C:\USERS\LOGOT\DOCUMENTS\GITHUB\DX11_ENGINE\ENGINE\COMPONENTS\GRAPHICS\SHADERS\VERTEXSHADER.HLSL
C:\USERS\LOGOT\DOCUMENTS\GITHUB\DX11_ENGINE\DEBUG\VERTEXSHADER.CSO
