^C:\USERS\LOGOT\DOCUMENTS\GITHUB\DX11_ENGINE\DEBUG\ADAPTERREADER.OBJ|C:\USERS\LOGOT\DOCUMENTS\GITHUB\DX11_ENGINE\DEBUG\ENGINE.OBJ|C:\USERS\LOGOT\DOCUMENTS\GITHUB\DX11_ENGINE\DEBUG\ERRORLOGGER.OBJ|C:\USERS\LOGOT\DOCUMENTS\GITHUB\DX11_ENGINE\DEBUG\GAMEPADCLASS.OBJ|C:\USERS\LOGOT\DOCUMENTS\GITHUB\DX11_ENGINE\DEBUG\GAMEPADEVENT.OBJ|C:\USERS\LOGOT\DOCUMENTS\GITHUB\DX11_ENGINE\DEBUG\GRAPHICS.OBJ|C:\USERS\LOGOT\DOCUMENTS\GITHUB\DX11_ENGINE\DEBUG\KEYBOARDCLASS.OBJ|C:\USERS\LOGOT\DOCUMENTS\GITHUB\DX11_ENGINE\DEBUG\KEYBOARDEVENT.OBJ|C:\USERS\LOGOT\DOCUMENTS\GITHUB\DX11_ENGINE\DEBUG\LOGWRITER.OBJ|C:\USERS\LOGOT\DOCUMENTS\GITHUB\DX11_ENGINE\DEBUG\LUASCRIPT.OBJ|C:\USERS\LOGOT\DOCUMENTS\GITHUB\DX11_ENGINE\DEBUG\MOUSECLASS.OBJ|C:\USERS\LOGOT\DOCUMENTS\GITHUB\DX11_ENGINE\DEBUG\MOUSEEVENT.OBJ|C:\USERS\LOGOT\DOCUMENTS\GITHUB\DX11_ENGINE\DEBUG\RENDERWINDOW.OBJ|C:\USERS\LOGOT\DOCUMENTS\GITHUB\DX11_ENGINE\DEBUG\SHADERS.OBJ|C:\USERS\LOGOT\DOCUMENTS\GITHUB\DX11_ENGINE\DEBUG\SOURCE.OBJ|C:\USERS\LOGOT\DOCUMENTS\GITHUB\DX11_ENGINE\DEBUG\STRINGCONVERTER.OBJ|C:\USERS\LOGOT\DOCUMENTS\GITHUB\DX11_ENGINE\DEBUG\WINDOWCONTAINER.OBJ
C:\USERS\LOGOT\DOCUMENTS\GITHUB\DX11_ENGINE\DEBUG\DX11_ENGINE.EXE
C:\USERS\LOGOT\DOCUMENTS\GITHUB\DX11_ENGINE\DEBUG\DX11_ENGINE.ILK
C:\USERS\LOGOT\DOCUMENTS\GITHUB\DX11_ENGINE\DEBUG\DX11_ENGINE.PDB
